{
  "ruleUsage": [
    {
      "endOffset": 231,
      "startOffset": 0,
      "styleSheetId": "67740.617",
      "used": true
    },
    {
      "endOffset": 700,
      "startOffset": 608,
      "styleSheetId": "67740.617",
      "used": true
    },
    {
      "endOffset": 850,
      "startOffset": 0,
      "styleSheetId": "67740.629",
      "used": true
    },
    {
      "endOffset": 1145,
      "startOffset": 910,
      "styleSheetId": "67740.629",
      "used": true
    },
    {
      "endOffset": 154,
      "startOffset": 0,
      "styleSheetId": "67740.630",
      "used": true
    },
    {
      "endOffset": 178,
      "startOffset": 0,
      "styleSheetId": "67740.634",
      "used": true
    },
    {
      "endOffset": 312,
      "startOffset": 178,
      "styleSheetId": "67740.634",
      "used": true
    },
    {
      "endOffset": 358,
      "startOffset": 312,
      "styleSheetId": "67740.634",
      "used": true
    },
    {
      "endOffset": 96107,
      "startOffset": 96090,
      "styleSheetId": "67740.728",
      "used": true
    },
    {
      "endOffset": 1165,
      "startOffset": 0,
      "styleSheetId": "67740.638",
      "used": true
    },
    {
      "endOffset": 69,
      "startOffset": 0,
      "styleSheetId": "67740.649",
      "used": true
    },
    {
      "endOffset": 144,
      "startOffset": 69,
      "styleSheetId": "67740.649",
      "used": true
    },
    {
      "endOffset": 508,
      "startOffset": 462,
      "styleSheetId": "67740.649",
      "used": true
    },
    {
      "endOffset": 221,
      "startOffset": 144,
      "styleSheetId": "67740.649",
      "used": true
    },
    {
      "endOffset": 294,
      "startOffset": 221,
      "styleSheetId": "67740.649",
      "used": true
    },
    {
      "endOffset": 87,
      "startOffset": 0,
      "styleSheetId": "67740.670",
      "used": true
    },
    {
      "endOffset": 120,
      "startOffset": 87,
      "styleSheetId": "67740.670",
      "used": true
    },
    {
      "endOffset": 279,
      "startOffset": 0,
      "styleSheetId": "67740.659",
      "used": true
    },
    {
      "endOffset": 353,
      "startOffset": 279,
      "styleSheetId": "67740.659",
      "used": true
    },
    {
      "endOffset": 1151,
      "startOffset": 1125,
      "styleSheetId": "67740.664",
      "used": true
    },
    {
      "endOffset": 879,
      "startOffset": 804,
      "styleSheetId": "67740.664",
      "used": true
    },
    {
      "endOffset": 2155,
      "startOffset": 2117,
      "styleSheetId": "67740.664",
      "used": true
    },
    {
      "endOffset": 2117,
      "startOffset": 2088,
      "styleSheetId": "67740.664",
      "used": true
    },
    {
      "endOffset": 1037,
      "startOffset": 992,
      "styleSheetId": "67740.664",
      "used": true
    },
    {
      "endOffset": 2279,
      "startOffset": 2250,
      "styleSheetId": "67740.664",
      "used": true
    },
    {
      "endOffset": 2330,
      "startOffset": 2279,
      "styleSheetId": "67740.664",
      "used": true
    },
    {
      "endOffset": 2250,
      "startOffset": 2155,
      "styleSheetId": "67740.664",
      "used": true
    },
    {
      "endOffset": 1181,
      "startOffset": 1151,
      "styleSheetId": "67740.664",
      "used": true
    },
    {
      "endOffset": 1416,
      "startOffset": 1181,
      "styleSheetId": "67740.664",
      "used": true
    },
    {
      "endOffset": 193,
      "startOffset": 137,
      "styleSheetId": "67740.664",
      "used": true
    },
    {
      "endOffset": 461,
      "startOffset": 298,
      "styleSheetId": "67740.664",
      "used": true
    },
    {
      "endOffset": 580,
      "startOffset": 544,
      "styleSheetId": "67740.664",
      "used": true
    },
    {
      "endOffset": 2549,
      "startOffset": 2523,
      "styleSheetId": "67740.664",
      "used": true
    },
    {
      "endOffset": 909,
      "startOffset": 879,
      "styleSheetId": "67740.664",
      "used": true
    },
    {
      "endOffset": 992,
      "startOffset": 909,
      "styleSheetId": "67740.664",
      "used": true
    },
    {
      "endOffset": 2443,
      "startOffset": 2359,
      "styleSheetId": "67740.664",
      "used": true
    },
    {
      "endOffset": 2359,
      "startOffset": 2330,
      "styleSheetId": "67740.664",
      "used": true
    },
    {
      "endOffset": 2488,
      "startOffset": 2443,
      "styleSheetId": "67740.664",
      "used": true
    },
    {
      "endOffset": 41,
      "startOffset": 0,
      "styleSheetId": "67740.672",
      "used": true
    },
    {
      "endOffset": 207,
      "startOffset": 0,
      "styleSheetId": "67740.683",
      "used": true
    },
    {
      "endOffset": 3997,
      "startOffset": 3840,
      "styleSheetId": "67740.680",
      "used": true
    },
    {
      "endOffset": 84,
      "startOffset": 0,
      "styleSheetId": "67740.680",
      "used": true
    },
    {
      "endOffset": 139,
      "startOffset": 106,
      "styleSheetId": "67740.680",
      "used": true
    },
    {
      "endOffset": 505,
      "startOffset": 139,
      "styleSheetId": "67740.680",
      "used": true
    },
    {
      "endOffset": 576,
      "startOffset": 505,
      "styleSheetId": "67740.680",
      "used": true
    },
    {
      "endOffset": 2933,
      "startOffset": 2891,
      "styleSheetId": "67740.680",
      "used": true
    },
    {
      "endOffset": 2099,
      "startOffset": 1863,
      "styleSheetId": "67740.680",
      "used": true
    },
    {
      "endOffset": 3005,
      "startOffset": 2933,
      "styleSheetId": "67740.680",
      "used": true
    },
    {
      "endOffset": 3055,
      "startOffset": 3005,
      "styleSheetId": "67740.680",
      "used": true
    },
    {
      "endOffset": 3122,
      "startOffset": 3077,
      "styleSheetId": "67740.680",
      "used": true
    },
    {
      "endOffset": 3166,
      "startOffset": 3122,
      "styleSheetId": "67740.680",
      "used": true
    },
    {
      "endOffset": 3487,
      "startOffset": 3390,
      "styleSheetId": "67740.680",
      "used": true
    },
    {
      "endOffset": 3593,
      "startOffset": 3566,
      "styleSheetId": "67740.680",
      "used": true
    },
    {
      "endOffset": 638,
      "startOffset": 576,
      "styleSheetId": "67740.680",
      "used": true
    },
    {
      "endOffset": 1012,
      "startOffset": 910,
      "styleSheetId": "67740.680",
      "used": true
    },
    {
      "endOffset": 1093,
      "startOffset": 1012,
      "styleSheetId": "67740.680",
      "used": true
    },
    {
      "endOffset": 106,
      "startOffset": 84,
      "styleSheetId": "67740.680",
      "used": true
    },
    {
      "endOffset": 1667,
      "startOffset": 1640,
      "styleSheetId": "67740.680",
      "used": true
    },
    {
      "endOffset": 1863,
      "startOffset": 1737,
      "styleSheetId": "67740.680",
      "used": true
    },
    {
      "endOffset": 910,
      "startOffset": 830,
      "styleSheetId": "67740.680",
      "used": true
    },
    {
      "endOffset": 270,
      "startOffset": 0,
      "styleSheetId": "67740.686",
      "used": true
    },
    {
      "endOffset": 122,
      "startOffset": 0,
      "styleSheetId": "67740.676",
      "used": true
    },
    {
      "endOffset": 475,
      "startOffset": 0,
      "styleSheetId": "67740.690",
      "used": true
    },
    {
      "endOffset": 85,
      "startOffset": 0,
      "styleSheetId": "67740.668",
      "used": true
    },
    {
      "endOffset": 163,
      "startOffset": 0,
      "styleSheetId": "67740.693",
      "used": true
    },
    {
      "endOffset": 240,
      "startOffset": 163,
      "styleSheetId": "67740.693",
      "used": true
    },
    {
      "endOffset": 35,
      "startOffset": 0,
      "styleSheetId": "67740.694",
      "used": true
    },
    {
      "endOffset": 274,
      "startOffset": 0,
      "styleSheetId": "67740.685",
      "used": true
    },
    {
      "endOffset": 6339,
      "startOffset": 6123,
      "styleSheetId": "67740.350",
      "used": true
    },
    {
      "endOffset": 153,
      "startOffset": 4,
      "styleSheetId": "67740.350",
      "used": true
    },
    {
      "endOffset": 250,
      "startOffset": 197,
      "styleSheetId": "67740.350",
      "used": true
    },
    {
      "endOffset": 704,
      "startOffset": 254,
      "styleSheetId": "67740.350",
      "used": true
    },
    {
      "endOffset": 6382,
      "startOffset": 6345,
      "styleSheetId": "67740.350",
      "used": true
    },
    {
      "endOffset": 5383,
      "startOffset": 5242,
      "styleSheetId": "67740.350",
      "used": true
    },
    {
      "endOffset": 5792,
      "startOffset": 5758,
      "styleSheetId": "67740.350",
      "used": true
    },
    {
      "endOffset": 953,
      "startOffset": 873,
      "styleSheetId": "67740.350",
      "used": true
    },
    {
      "endOffset": 855,
      "startOffset": 732,
      "styleSheetId": "67740.350",
      "used": true
    },
    {
      "endOffset": 1629,
      "startOffset": 1427,
      "styleSheetId": "67740.350",
      "used": true
    },
    {
      "endOffset": 192,
      "startOffset": 156,
      "styleSheetId": "67740.350",
      "used": true
    },
    {
      "endOffset": 4438,
      "startOffset": 4379,
      "styleSheetId": "67740.350",
      "used": true
    },
    {
      "endOffset": 3095,
      "startOffset": 2809,
      "styleSheetId": "67740.350",
      "used": true
    },
    {
      "endOffset": 4532,
      "startOffset": 4442,
      "styleSheetId": "67740.350",
      "used": true
    },
    {
      "endOffset": 4612,
      "startOffset": 4536,
      "styleSheetId": "67740.350",
      "used": true
    },
    {
      "endOffset": 4712,
      "startOffset": 4653,
      "styleSheetId": "67740.350",
      "used": true
    },
    {
      "endOffset": 4774,
      "startOffset": 4716,
      "styleSheetId": "67740.350",
      "used": true
    },
    {
      "endOffset": 2470,
      "startOffset": 2426,
      "styleSheetId": "67740.350",
      "used": true
    },
    {
      "endOffset": 2627,
      "startOffset": 2576,
      "styleSheetId": "67740.350",
      "used": true
    },
    {
      "endOffset": 1424,
      "startOffset": 1223,
      "styleSheetId": "67740.350",
      "used": true
    },
    {
      "endOffset": 193,
      "startOffset": 0,
      "styleSheetId": "67740.647",
      "used": true
    },
    {
      "endOffset": 274,
      "startOffset": 0,
      "styleSheetId": "67740.689",
      "used": true
    },
    {
      "endOffset": 198,
      "startOffset": 0,
      "styleSheetId": "67740.700",
      "used": true
    },
    {
      "endOffset": 805,
      "startOffset": 713,
      "styleSheetId": "67740.700",
      "used": true
    },
    {
      "endOffset": 434,
      "startOffset": 347,
      "styleSheetId": "67740.700",
      "used": true
    },
    {
      "endOffset": 104,
      "startOffset": 0,
      "styleSheetId": "67740.619",
      "used": true
    },
    {
      "endOffset": 277,
      "startOffset": 104,
      "styleSheetId": "67740.619",
      "used": true
    },
    {
      "endOffset": 298,
      "startOffset": 0,
      "styleSheetId": "67740.622",
      "used": true
    },
    {
      "endOffset": 34229,
      "startOffset": 33992,
      "styleSheetId": "67740.354",
      "used": true
    },
    {
      "endOffset": 36230,
      "startOffset": 36125,
      "styleSheetId": "67740.354",
      "used": true
    },
    {
      "endOffset": 34852,
      "startOffset": 34572,
      "styleSheetId": "67740.354",
      "used": true
    },
    {
      "endOffset": 36332,
      "startOffset": 36230,
      "styleSheetId": "67740.354",
      "used": true
    },
    {
      "endOffset": 34520,
      "startOffset": 34248,
      "styleSheetId": "67740.354",
      "used": true
    },
    {
      "endOffset": 37891,
      "startOffset": 37844,
      "styleSheetId": "67740.354",
      "used": true
    },
    {
      "endOffset": 70875,
      "startOffset": 70793,
      "styleSheetId": "67740.354",
      "used": true
    },
    {
      "endOffset": 71059,
      "startOffset": 70956,
      "styleSheetId": "67740.354",
      "used": true
    },
    {
      "endOffset": 53710,
      "startOffset": 53361,
      "styleSheetId": "67740.354",
      "used": true
    },
    {
      "endOffset": 62952,
      "startOffset": 62845,
      "styleSheetId": "67740.354",
      "used": true
    },
    {
      "endOffset": 54959,
      "startOffset": 54787,
      "styleSheetId": "67740.354",
      "used": true
    },
    {
      "endOffset": 63103,
      "startOffset": 62952,
      "styleSheetId": "67740.354",
      "used": true
    },
    {
      "endOffset": 55191,
      "startOffset": 55074,
      "styleSheetId": "67740.354",
      "used": true
    },
    {
      "endOffset": 63270,
      "startOffset": 63103,
      "styleSheetId": "67740.354",
      "used": true
    },
    {
      "endOffset": 64012,
      "startOffset": 63922,
      "styleSheetId": "67740.354",
      "used": true
    },
    {
      "endOffset": 430,
      "startOffset": 119,
      "styleSheetId": "67740.354",
      "used": true
    },
    {
      "endOffset": 38680,
      "startOffset": 38350,
      "styleSheetId": "67740.354",
      "used": true
    },
    {
      "endOffset": 18042,
      "startOffset": 17897,
      "styleSheetId": "67740.354",
      "used": true
    },
    {
      "endOffset": 17897,
      "startOffset": 17814,
      "styleSheetId": "67740.354",
      "used": true
    },
    {
      "endOffset": 21298,
      "startOffset": 21244,
      "styleSheetId": "67740.354",
      "used": true
    },
    {
      "endOffset": 4089,
      "startOffset": 3912,
      "styleSheetId": "67740.354",
      "used": true
    },
    {
      "endOffset": 37779,
      "startOffset": 36516,
      "styleSheetId": "67740.354",
      "used": true
    },
    {
      "endOffset": 65178,
      "startOffset": 65116,
      "styleSheetId": "67740.354",
      "used": true
    },
    {
      "endOffset": 45897,
      "startOffset": 45507,
      "styleSheetId": "67740.354",
      "used": true
    },
    {
      "endOffset": 48895,
      "startOffset": 48577,
      "styleSheetId": "67740.354",
      "used": true
    },
    {
      "endOffset": 36125,
      "startOffset": 36072,
      "styleSheetId": "67740.354",
      "used": true
    },
    {
      "endOffset": 21244,
      "startOffset": 21136,
      "styleSheetId": "67740.354",
      "used": true
    },
    {
      "endOffset": 87501,
      "startOffset": 87441,
      "styleSheetId": "67740.354",
      "used": true
    },
    {
      "endOffset": 87865,
      "startOffset": 87501,
      "styleSheetId": "67740.354",
      "used": true
    },
    {
      "endOffset": 87934,
      "startOffset": 87865,
      "styleSheetId": "67740.354",
      "used": true
    },
    {
      "endOffset": 87990,
      "startOffset": 87934,
      "styleSheetId": "67740.354",
      "used": true
    },
    {
      "endOffset": 328,
      "startOffset": 21,
      "styleSheetId": "67740.627",
      "used": true
    },
    {
      "endOffset": 77,
      "startOffset": 0,
      "styleSheetId": "67740.628",
      "used": true
    },
    {
      "endOffset": 154,
      "startOffset": 77,
      "styleSheetId": "67740.628",
      "used": true
    },
    {
      "endOffset": 146,
      "startOffset": 0,
      "styleSheetId": "67740.673",
      "used": true
    },
    {
      "endOffset": 323,
      "startOffset": 282,
      "styleSheetId": "67740.673",
      "used": true
    },
    {
      "endOffset": 362,
      "startOffset": 323,
      "styleSheetId": "67740.673",
      "used": true
    },
    {
      "endOffset": 84,
      "startOffset": 0,
      "styleSheetId": "67740.646",
      "used": true
    },
    {
      "endOffset": 134,
      "startOffset": 0,
      "styleSheetId": "67740.621",
      "used": true
    },
    {
      "endOffset": 313,
      "startOffset": 134,
      "styleSheetId": "67740.621",
      "used": true
    },
    {
      "endOffset": 556,
      "startOffset": 313,
      "styleSheetId": "67740.621",
      "used": true
    },
    {
      "endOffset": 288,
      "startOffset": 0,
      "styleSheetId": "67740.650",
      "used": true
    },
    {
      "endOffset": 639,
      "startOffset": 468,
      "styleSheetId": "67740.650",
      "used": true
    },
    {
      "endOffset": 1008,
      "startOffset": 639,
      "styleSheetId": "67740.650",
      "used": true
    },
    {
      "endOffset": 63,
      "startOffset": 0,
      "styleSheetId": "67740.654",
      "used": true
    },
    {
      "endOffset": 67,
      "startOffset": 0,
      "styleSheetId": "67740.625",
      "used": true
    },
    {
      "endOffset": 525,
      "startOffset": 483,
      "styleSheetId": "67740.625",
      "used": true
    },
    {
      "endOffset": 238955,
      "startOffset": 238936,
      "styleSheetId": "67740.727",
      "used": true
    },
    {
      "endOffset": 239142,
      "startOffset": 239103,
      "styleSheetId": "67740.727",
      "used": true
    },
    {
      "endOffset": 58937,
      "startOffset": 58859,
      "styleSheetId": "67740.727",
      "used": true
    },
    {
      "endOffset": 64635,
      "startOffset": 64557,
      "styleSheetId": "67740.727",
      "used": true
    },
    {
      "endOffset": 238971,
      "startOffset": 238955,
      "styleSheetId": "67740.727",
      "used": true
    },
    {
      "endOffset": 238936,
      "startOffset": 238910,
      "styleSheetId": "67740.727",
      "used": true
    },
    {
      "endOffset": 205480,
      "startOffset": 205454,
      "styleSheetId": "67740.727",
      "used": true
    },
    {
      "endOffset": 205768,
      "startOffset": 205742,
      "styleSheetId": "67740.727",
      "used": true
    },
    {
      "endOffset": 658052,
      "startOffset": 658026,
      "styleSheetId": "67740.727",
      "used": true
    },
    {
      "endOffset": 670800,
      "startOffset": 670774,
      "styleSheetId": "67740.727",
      "used": true
    },
    {
      "endOffset": 671861,
      "startOffset": 671835,
      "styleSheetId": "67740.727",
      "used": true
    },
    {
      "endOffset": 680953,
      "startOffset": 680927,
      "styleSheetId": "67740.727",
      "used": true
    },
    {
      "endOffset": 710422,
      "startOffset": 710396,
      "styleSheetId": "67740.727",
      "used": true
    },
    {
      "endOffset": 825103,
      "startOffset": 825077,
      "styleSheetId": "67740.727",
      "used": true
    },
    {
      "endOffset": 784915,
      "startOffset": 784872,
      "styleSheetId": "67740.727",
      "used": true
    },
    {
      "endOffset": 785046,
      "startOffset": 784915,
      "styleSheetId": "67740.727",
      "used": true
    },
    {
      "endOffset": 785167,
      "startOffset": 785123,
      "styleSheetId": "67740.727",
      "used": true
    },
    {
      "endOffset": 239164,
      "startOffset": 239142,
      "styleSheetId": "67740.727",
      "used": true
    },
    {
      "endOffset": 734062,
      "startOffset": 734016,
      "styleSheetId": "67740.727",
      "used": true
    },
    {
      "endOffset": 759063,
      "startOffset": 758964,
      "styleSheetId": "67740.727",
      "used": true
    },
    {
      "endOffset": 710649,
      "startOffset": 710422,
      "styleSheetId": "67740.727",
      "used": true
    },
    {
      "endOffset": 239873,
      "startOffset": 239841,
      "styleSheetId": "67740.727",
      "used": true
    },
    {
      "endOffset": 627400,
      "startOffset": 627348,
      "styleSheetId": "67740.727",
      "used": true
    },
    {
      "endOffset": 627443,
      "startOffset": 627400,
      "styleSheetId": "67740.727",
      "used": true
    },
    {
      "endOffset": 627487,
      "startOffset": 627443,
      "styleSheetId": "67740.727",
      "used": true
    },
    {
      "endOffset": 629560,
      "startOffset": 629282,
      "styleSheetId": "67740.727",
      "used": true
    },
    {
      "endOffset": 628542,
      "startOffset": 627487,
      "styleSheetId": "67740.727",
      "used": true
    },
    {
      "endOffset": 157,
      "startOffset": 25,
      "styleSheetId": "67740.660",
      "used": true
    },
    {
      "endOffset": 272,
      "startOffset": 183,
      "styleSheetId": "67740.660",
      "used": true
    },
    {
      "endOffset": 392,
      "startOffset": 298,
      "styleSheetId": "67740.660",
      "used": true
    },
    {
      "endOffset": 877,
      "startOffset": 0,
      "styleSheetId": "67740.663",
      "used": true
    },
    {
      "endOffset": 277,
      "startOffset": 0,
      "styleSheetId": "67740.665",
      "used": true
    },
    {
      "endOffset": 741,
      "startOffset": 650,
      "styleSheetId": "67740.665",
      "used": true
    },
    {
      "endOffset": 402,
      "startOffset": 0,
      "styleSheetId": "67740.667",
      "used": true
    },
    {
      "endOffset": 1339,
      "startOffset": 1292,
      "styleSheetId": "67740.667",
      "used": true
    },
    {
      "endOffset": 442,
      "startOffset": 402,
      "styleSheetId": "67740.667",
      "used": true
    },
    {
      "endOffset": 1109,
      "startOffset": 1061,
      "styleSheetId": "67740.667",
      "used": true
    },
    {
      "endOffset": 1885,
      "startOffset": 1761,
      "styleSheetId": "67740.667",
      "used": true
    },
    {
      "endOffset": 1938,
      "startOffset": 1885,
      "styleSheetId": "67740.667",
      "used": true
    },
    {
      "endOffset": 1683,
      "startOffset": 1339,
      "styleSheetId": "67740.667",
      "used": true
    },
    {
      "endOffset": 1728,
      "startOffset": 1683,
      "styleSheetId": "67740.667",
      "used": true
    },
    {
      "endOffset": 187,
      "startOffset": 0,
      "styleSheetId": "67740.704",
      "used": true
    },
    {
      "endOffset": 241,
      "startOffset": 187,
      "styleSheetId": "67740.704",
      "used": true
    },
    {
      "endOffset": 439,
      "startOffset": 241,
      "styleSheetId": "67740.704",
      "used": true
    },
    {
      "endOffset": 518,
      "startOffset": 439,
      "styleSheetId": "67740.704",
      "used": true
    },
    {
      "endOffset": 565,
      "startOffset": 518,
      "styleSheetId": "67740.704",
      "used": true
    },
    {
      "endOffset": 666,
      "startOffset": 596,
      "styleSheetId": "67740.704",
      "used": true
    },
    {
      "endOffset": 4096,
      "startOffset": 4061,
      "styleSheetId": "67740.704",
      "used": true
    },
    {
      "endOffset": 4178,
      "startOffset": 4096,
      "styleSheetId": "67740.704",
      "used": true
    },
    {
      "endOffset": 32,
      "startOffset": 0,
      "styleSheetId": "67740.697",
      "used": true
    },
    {
      "endOffset": 135,
      "startOffset": 0,
      "styleSheetId": "67740.674",
      "used": true
    },
    {
      "endOffset": 62,
      "startOffset": 0,
      "styleSheetId": "67740.678",
      "used": true
    },
    {
      "endOffset": 1064,
      "startOffset": 0,
      "styleSheetId": "67740.684",
      "used": true
    },
    {
      "endOffset": 2019,
      "startOffset": 1830,
      "styleSheetId": "67740.684",
      "used": true
    },
    {
      "endOffset": 48,
      "startOffset": 0,
      "styleSheetId": "67740.687",
      "used": true
    },
    {
      "endOffset": 161,
      "startOffset": 0,
      "styleSheetId": "67740.692",
      "used": true
    },
    {
      "endOffset": 208,
      "startOffset": 0,
      "styleSheetId": "67740.695",
      "used": true
    },
    {
      "endOffset": 278,
      "startOffset": 0,
      "styleSheetId": "67740.618",
      "used": true
    },
    {
      "endOffset": 31,
      "startOffset": 0,
      "styleSheetId": "67740.623",
      "used": true
    },
    {
      "endOffset": 34,
      "startOffset": 0,
      "styleSheetId": "67740.626",
      "used": true
    },
    {
      "endOffset": 55,
      "startOffset": 0,
      "styleSheetId": "67740.636",
      "used": true
    },
    {
      "endOffset": 121,
      "startOffset": 91,
      "styleSheetId": "67740.636",
      "used": true
    },
    {
      "endOffset": 402,
      "startOffset": 0,
      "styleSheetId": "67740.639",
      "used": true
    },
    {
      "endOffset": 489,
      "startOffset": 402,
      "styleSheetId": "67740.639",
      "used": true
    },
    {
      "endOffset": 684,
      "startOffset": 489,
      "styleSheetId": "67740.639",
      "used": true
    },
    {
      "endOffset": 26,
      "startOffset": 0,
      "styleSheetId": "67740.645",
      "used": true
    },
    {
      "endOffset": 116,
      "startOffset": 0,
      "styleSheetId": "67740.648",
      "used": true
    },
    {
      "endOffset": 287,
      "startOffset": 0,
      "styleSheetId": "67740.651",
      "used": true
    },
    {
      "endOffset": 852,
      "startOffset": 463,
      "styleSheetId": "67740.651",
      "used": true
    },
    {
      "endOffset": 962,
      "startOffset": 0,
      "styleSheetId": "67740.653",
      "used": true
    },
    {
      "endOffset": 1025,
      "startOffset": 962,
      "styleSheetId": "67740.653",
      "used": true
    },
    {
      "endOffset": 191,
      "startOffset": 0,
      "styleSheetId": "67740.656",
      "used": true
    },
    {
      "endOffset": 300,
      "startOffset": 3,
      "styleSheetId": "67740.706",
      "used": true
    },
    {
      "endOffset": 353,
      "startOffset": 304,
      "styleSheetId": "67740.706",
      "used": true
    },
    {
      "endOffset": 162,
      "startOffset": 0,
      "styleSheetId": "67740.661",
      "used": true
    },
    {
      "endOffset": 28,
      "startOffset": 0,
      "styleSheetId": "67740.624",
      "used": true
    },
    {
      "endOffset": 276,
      "startOffset": 13,
      "styleSheetId": "67740.348",
      "used": true
    },
    {
      "endOffset": 429,
      "startOffset": 0,
      "styleSheetId": "67740.677",
      "used": true
    },
    {
      "endOffset": 1573,
      "startOffset": 1404,
      "styleSheetId": "67740.677",
      "used": true
    },
    {
      "endOffset": 1996,
      "startOffset": 1947,
      "styleSheetId": "67740.677",
      "used": true
    },
    {
      "endOffset": 1728,
      "startOffset": 1664,
      "styleSheetId": "67740.677",
      "used": true
    },
    {
      "endOffset": 2175,
      "startOffset": 2087,
      "styleSheetId": "67740.677",
      "used": true
    },
    {
      "endOffset": 1815,
      "startOffset": 1728,
      "styleSheetId": "67740.677",
      "used": true
    },
    {
      "endOffset": 2230,
      "startOffset": 2175,
      "styleSheetId": "67740.677",
      "used": true
    },
    {
      "endOffset": 2317,
      "startOffset": 2230,
      "styleSheetId": "67740.677",
      "used": true
    },
    {
      "endOffset": 230,
      "startOffset": 0,
      "styleSheetId": "67740.681",
      "used": true
    },
    {
      "endOffset": 411,
      "startOffset": 230,
      "styleSheetId": "67740.681",
      "used": true
    },
    {
      "endOffset": 648,
      "startOffset": 411,
      "styleSheetId": "67740.681",
      "used": true
    },
    {
      "endOffset": 346,
      "startOffset": 0,
      "styleSheetId": "67740.641",
      "used": true
    },
    {
      "endOffset": 387,
      "startOffset": 0,
      "styleSheetId": "67740.688",
      "used": true
    },
    {
      "endOffset": 850,
      "startOffset": 0,
      "styleSheetId": "67740.696",
      "used": true
    },
    {
      "endOffset": 1145,
      "startOffset": 910,
      "styleSheetId": "67740.696",
      "used": true
    },
    {
      "endOffset": 419,
      "startOffset": 0,
      "styleSheetId": "67740.698",
      "used": true
    },
    {
      "endOffset": 1394,
      "startOffset": 1050,
      "styleSheetId": "67740.698",
      "used": true
    },
    {
      "endOffset": 1583,
      "startOffset": 1394,
      "styleSheetId": "67740.698",
      "used": true
    },
    {
      "endOffset": 264,
      "startOffset": 0,
      "styleSheetId": "67740.702",
      "used": true
    },
    {
      "endOffset": 125,
      "startOffset": 0,
      "styleSheetId": "67740.616",
      "used": true
    },
    {
      "endOffset": 335,
      "startOffset": 0,
      "styleSheetId": "67740.620",
      "used": true
    },
    {
      "endOffset": 376,
      "startOffset": 335,
      "styleSheetId": "67740.620",
      "used": true
    },
    {
      "endOffset": 1445,
      "startOffset": 1318,
      "styleSheetId": "67740.620",
      "used": true
    },
    {
      "endOffset": 1500,
      "startOffset": 1445,
      "styleSheetId": "67740.620",
      "used": true
    },
    {
      "endOffset": 1318,
      "startOffset": 973,
      "styleSheetId": "67740.620",
      "used": true
    },
    {
      "endOffset": 3530,
      "startOffset": 3455,
      "styleSheetId": "67740.355",
      "used": true
    },
    {
      "endOffset": 4173,
      "startOffset": 4133,
      "styleSheetId": "67740.355",
      "used": true
    },
    {
      "endOffset": 4133,
      "startOffset": 4044,
      "styleSheetId": "67740.355",
      "used": true
    },
    {
      "endOffset": 10071,
      "startOffset": 10036,
      "styleSheetId": "67740.355",
      "used": true
    },
    {
      "endOffset": 10108,
      "startOffset": 10071,
      "styleSheetId": "67740.355",
      "used": true
    },
    {
      "endOffset": 258763,
      "startOffset": 258746,
      "styleSheetId": "67740.355",
      "used": true
    },
    {
      "endOffset": 3757,
      "startOffset": 3684,
      "styleSheetId": "67740.355",
      "used": true
    },
    {
      "endOffset": 4402,
      "startOffset": 4289,
      "styleSheetId": "67740.355",
      "used": true
    },
    {
      "endOffset": 5118,
      "startOffset": 5015,
      "styleSheetId": "67740.355",
      "used": true
    },
    {
      "endOffset": 3570,
      "startOffset": 3548,
      "styleSheetId": "67740.355",
      "used": true
    },
    {
      "endOffset": 4714,
      "startOffset": 4402,
      "styleSheetId": "67740.355",
      "used": true
    },
    {
      "endOffset": 5743,
      "startOffset": 5640,
      "styleSheetId": "67740.355",
      "used": true
    },
    {
      "endOffset": 35828,
      "startOffset": 35736,
      "styleSheetId": "67740.355",
      "used": true
    },
    {
      "endOffset": 204563,
      "startOffset": 204494,
      "styleSheetId": "67740.355",
      "used": true
    },
    {
      "endOffset": 204078,
      "startOffset": 203913,
      "styleSheetId": "67740.355",
      "used": true
    },
    {
      "endOffset": 204494,
      "startOffset": 204408,
      "styleSheetId": "67740.355",
      "used": true
    },
    {
      "endOffset": 204658,
      "startOffset": 204563,
      "styleSheetId": "67740.355",
      "used": true
    },
    {
      "endOffset": 266559,
      "startOffset": 266451,
      "styleSheetId": "67740.355",
      "used": true
    },
    {
      "endOffset": 219229,
      "startOffset": 219137,
      "styleSheetId": "67740.355",
      "used": true
    },
    {
      "endOffset": 8805,
      "startOffset": 8745,
      "styleSheetId": "67740.355",
      "used": true
    },
    {
      "endOffset": 10036,
      "startOffset": 10008,
      "styleSheetId": "67740.355",
      "used": true
    },
    {
      "endOffset": 197149,
      "startOffset": 197111,
      "styleSheetId": "67740.355",
      "used": true
    },
    {
      "endOffset": 258746,
      "startOffset": 258716,
      "styleSheetId": "67740.355",
      "used": true
    },
    {
      "endOffset": 10832,
      "startOffset": 10633,
      "styleSheetId": "67740.355",
      "used": true
    },
    {
      "endOffset": 258716,
      "startOffset": 258670,
      "styleSheetId": "67740.355",
      "used": true
    },
    {
      "endOffset": 197187,
      "startOffset": 197149,
      "styleSheetId": "67740.355",
      "used": true
    },
    {
      "endOffset": 247390,
      "startOffset": 247367,
      "styleSheetId": "67740.355",
      "used": true
    },
    {
      "endOffset": 269104,
      "startOffset": 269075,
      "styleSheetId": "67740.355",
      "used": true
    },
    {
      "endOffset": 248531,
      "startOffset": 248447,
      "styleSheetId": "67740.355",
      "used": true
    },
    {
      "endOffset": 267871,
      "startOffset": 267758,
      "styleSheetId": "67740.355",
      "used": true
    },
    {
      "endOffset": 267988,
      "startOffset": 267871,
      "styleSheetId": "67740.355",
      "used": true
    },
    {
      "endOffset": 266382,
      "startOffset": 266341,
      "styleSheetId": "67740.355",
      "used": true
    },
    {
      "endOffset": 266451,
      "startOffset": 266382,
      "styleSheetId": "67740.355",
      "used": true
    },
    {
      "endOffset": 240304,
      "startOffset": 240269,
      "styleSheetId": "67740.355",
      "used": true
    },
    {
      "endOffset": 247367,
      "startOffset": 247290,
      "styleSheetId": "67740.355",
      "used": true
    },
    {
      "endOffset": 269129,
      "startOffset": 269104,
      "styleSheetId": "67740.355",
      "used": true
    },
    {
      "endOffset": 253678,
      "startOffset": 253636,
      "styleSheetId": "67740.355",
      "used": true
    },
    {
      "endOffset": 247433,
      "startOffset": 247390,
      "styleSheetId": "67740.355",
      "used": true
    },
    {
      "endOffset": 266271,
      "startOffset": 266248,
      "styleSheetId": "67740.355",
      "used": true
    },
    {
      "endOffset": 266629,
      "startOffset": 266559,
      "styleSheetId": "67740.355",
      "used": true
    },
    {
      "endOffset": 269433,
      "startOffset": 269395,
      "styleSheetId": "67740.355",
      "used": true
    },
    {
      "endOffset": 259811,
      "startOffset": 259737,
      "styleSheetId": "67740.355",
      "used": true
    },
    {
      "endOffset": 3548,
      "startOffset": 3530,
      "styleSheetId": "67740.355",
      "used": true
    },
    {
      "endOffset": 8857,
      "startOffset": 8805,
      "styleSheetId": "67740.355",
      "used": true
    },
    {
      "endOffset": 267153,
      "startOffset": 267025,
      "styleSheetId": "67740.355",
      "used": true
    },
    {
      "endOffset": 249251,
      "startOffset": 249178,
      "styleSheetId": "67740.355",
      "used": true
    },
    {
      "endOffset": 249304,
      "startOffset": 249251,
      "styleSheetId": "67740.355",
      "used": true
    },
    {
      "endOffset": 249525,
      "startOffset": 249471,
      "styleSheetId": "67740.355",
      "used": true
    },
    {
      "endOffset": 248697,
      "startOffset": 248613,
      "styleSheetId": "67740.355",
      "used": true
    },
    {
      "endOffset": 267387,
      "startOffset": 267338,
      "styleSheetId": "67740.355",
      "used": true
    },
    {
      "endOffset": 248813,
      "startOffset": 248697,
      "styleSheetId": "67740.355",
      "used": true
    },
    {
      "endOffset": 249094,
      "startOffset": 249012,
      "styleSheetId": "67740.355",
      "used": true
    },
    {
      "endOffset": 224225,
      "startOffset": 224199,
      "styleSheetId": "67740.355",
      "used": true
    },
    {
      "endOffset": 239407,
      "startOffset": 239381,
      "styleSheetId": "67740.355",
      "used": true
    },
    {
      "endOffset": 287649,
      "startOffset": 287623,
      "styleSheetId": "67740.355",
      "used": true
    },
    {
      "endOffset": 308350,
      "startOffset": 308324,
      "styleSheetId": "67740.355",
      "used": true
    },
    {
      "endOffset": 249471,
      "startOffset": 249418,
      "styleSheetId": "67740.355",
      "used": true
    },
    {
      "endOffset": 239909,
      "startOffset": 239853,
      "styleSheetId": "67740.355",
      "used": true
    },
    {
      "endOffset": 240120,
      "startOffset": 240072,
      "styleSheetId": "67740.355",
      "used": true
    },
    {
      "endOffset": 267486,
      "startOffset": 267436,
      "styleSheetId": "67740.355",
      "used": true
    },
    {
      "endOffset": 267713,
      "startOffset": 267605,
      "styleSheetId": "67740.355",
      "used": true
    },
    {
      "endOffset": 248861,
      "startOffset": 248813,
      "styleSheetId": "67740.355",
      "used": true
    },
    {
      "endOffset": 239949,
      "startOffset": 239909,
      "styleSheetId": "67740.355",
      "used": true
    },
    {
      "endOffset": 248932,
      "startOffset": 248861,
      "styleSheetId": "67740.355",
      "used": true
    },
    {
      "endOffset": 249178,
      "startOffset": 249094,
      "styleSheetId": "67740.355",
      "used": true
    },
    {
      "endOffset": 269244,
      "startOffset": 269175,
      "styleSheetId": "67740.355",
      "used": true
    },
    {
      "endOffset": 240072,
      "startOffset": 239992,
      "styleSheetId": "67740.355",
      "used": true
    },
    {
      "endOffset": 266805,
      "startOffset": 266629,
      "styleSheetId": "67740.355",
      "used": true
    },
    {
      "endOffset": 249597,
      "startOffset": 249525,
      "styleSheetId": "67740.355",
      "used": true
    },
    {
      "endOffset": 266341,
      "startOffset": 266271,
      "styleSheetId": "67740.355",
      "used": true
    },
    {
      "endOffset": 266851,
      "startOffset": 266805,
      "styleSheetId": "67740.355",
      "used": true
    },
    {
      "endOffset": 266940,
      "startOffset": 266851,
      "styleSheetId": "67740.355",
      "used": true
    },
    {
      "endOffset": 308018,
      "startOffset": 307998,
      "styleSheetId": "67740.355",
      "used": true
    },
    {
      "endOffset": 249735,
      "startOffset": 249663,
      "styleSheetId": "67740.355",
      "used": true
    },
    {
      "endOffset": 266969,
      "startOffset": 266940,
      "styleSheetId": "67740.355",
      "used": true
    },
    {
      "endOffset": 259878,
      "startOffset": 259811,
      "styleSheetId": "67740.355",
      "used": true
    },
    {
      "endOffset": 260000,
      "startOffset": 259878,
      "styleSheetId": "67740.355",
      "used": true
    },
    {
      "endOffset": 260243,
      "startOffset": 260000,
      "styleSheetId": "67740.355",
      "used": true
    },
    {
      "endOffset": 5015,
      "startOffset": 4714,
      "styleSheetId": "67740.355",
      "used": true
    },
    {
      "endOffset": 267242,
      "startOffset": 267153,
      "styleSheetId": "67740.355",
      "used": true
    },
    {
      "endOffset": 308559,
      "startOffset": 308396,
      "styleSheetId": "67740.355",
      "used": true
    },
    {
      "endOffset": 308630,
      "startOffset": 308559,
      "styleSheetId": "67740.355",
      "used": true
    },
    {
      "endOffset": 308699,
      "startOffset": 308630,
      "styleSheetId": "67740.355",
      "used": true
    },
    {
      "endOffset": 249792,
      "startOffset": 249735,
      "styleSheetId": "67740.355",
      "used": true
    },
    {
      "endOffset": 268790,
      "startOffset": 268698,
      "styleSheetId": "67740.355",
      "used": true
    },
    {
      "endOffset": 268201,
      "startOffset": 267988,
      "styleSheetId": "67740.355",
      "used": true
    },
    {
      "endOffset": 271048,
      "startOffset": 270835,
      "styleSheetId": "67740.355",
      "used": true
    },
    {
      "endOffset": 249870,
      "startOffset": 249792,
      "styleSheetId": "67740.355",
      "used": true
    },
    {
      "endOffset": 268237,
      "startOffset": 268201,
      "styleSheetId": "67740.355",
      "used": true
    },
    {
      "endOffset": 271084,
      "startOffset": 271048,
      "styleSheetId": "67740.355",
      "used": true
    },
    {
      "endOffset": 225867,
      "startOffset": 225811,
      "styleSheetId": "67740.355",
      "used": true
    },
    {
      "endOffset": 268473,
      "startOffset": 268237,
      "styleSheetId": "67740.355",
      "used": true
    },
    {
      "endOffset": 271320,
      "startOffset": 271084,
      "styleSheetId": "67740.355",
      "used": true
    },
    {
      "endOffset": 251480,
      "startOffset": 251332,
      "styleSheetId": "67740.355",
      "used": true
    },
    {
      "endOffset": 252846,
      "startOffset": 252735,
      "styleSheetId": "67740.355",
      "used": true
    },
    {
      "endOffset": 252678,
      "startOffset": 252524,
      "styleSheetId": "67740.355",
      "used": true
    },
    {
      "endOffset": 250280,
      "startOffset": 250190,
      "styleSheetId": "67740.355",
      "used": true
    },
    {
      "endOffset": 250396,
      "startOffset": 250280,
      "styleSheetId": "67740.355",
      "used": true
    },
    {
      "endOffset": 268698,
      "startOffset": 268542,
      "styleSheetId": "67740.355",
      "used": true
    },
    {
      "endOffset": 271476,
      "startOffset": 271320,
      "styleSheetId": "67740.355",
      "used": true
    },
    {
      "endOffset": 250675,
      "startOffset": 250396,
      "styleSheetId": "67740.355",
      "used": true
    },
    {
      "endOffset": 226257,
      "startOffset": 226173,
      "styleSheetId": "67740.355",
      "used": true
    },
    {
      "endOffset": 276503,
      "startOffset": 276384,
      "styleSheetId": "67740.355",
      "used": true
    },
    {
      "endOffset": 249918,
      "startOffset": 249870,
      "styleSheetId": "67740.355",
      "used": true
    },
    {
      "endOffset": 252735,
      "startOffset": 252678,
      "styleSheetId": "67740.355",
      "used": true
    },
    {
      "endOffset": 277543,
      "startOffset": 277442,
      "styleSheetId": "67740.355",
      "used": true
    },
    {
      "endOffset": 39376,
      "startOffset": 39177,
      "styleSheetId": "67740.355",
      "used": true
    },
    {
      "endOffset": 39464,
      "startOffset": 39376,
      "styleSheetId": "67740.355",
      "used": true
    },
    {
      "endOffset": 39503,
      "startOffset": 39464,
      "styleSheetId": "67740.355",
      "used": true
    },
    {
      "endOffset": 263539,
      "startOffset": 263511,
      "styleSheetId": "67740.355",
      "used": true
    },
    {
      "endOffset": 212993,
      "startOffset": 212879,
      "styleSheetId": "67740.355",
      "used": true
    },
    {
      "endOffset": 213045,
      "startOffset": 212993,
      "styleSheetId": "67740.355",
      "used": true
    },
    {
      "endOffset": 277613,
      "startOffset": 277543,
      "styleSheetId": "67740.355",
      "used": true
    },
    {
      "endOffset": 250108,
      "startOffset": 250037,
      "styleSheetId": "67740.355",
      "used": true
    },
    {
      "endOffset": 39776,
      "startOffset": 39542,
      "styleSheetId": "67740.355",
      "used": true
    },
    {
      "endOffset": 39830,
      "startOffset": 39776,
      "styleSheetId": "67740.355",
      "used": true
    },
    {
      "endOffset": 111836,
      "startOffset": 111790,
      "styleSheetId": "67740.355",
      "used": true
    },
    {
      "endOffset": 213372,
      "startOffset": 213097,
      "styleSheetId": "67740.355",
      "used": true
    },
    {
      "endOffset": 213440,
      "startOffset": 213372,
      "styleSheetId": "67740.355",
      "used": true
    },
    {
      "endOffset": 215564,
      "startOffset": 215504,
      "styleSheetId": "67740.355",
      "used": true
    },
    {
      "endOffset": 277215,
      "startOffset": 277082,
      "styleSheetId": "67740.355",
      "used": true
    },
    {
      "endOffset": 277762,
      "startOffset": 277703,
      "styleSheetId": "67740.355",
      "used": true
    },
    {
      "endOffset": 277879,
      "startOffset": 277762,
      "styleSheetId": "67740.355",
      "used": true
    },
    {
      "endOffset": 277290,
      "startOffset": 277215,
      "styleSheetId": "67740.355",
      "used": true
    },
    {
      "endOffset": 277334,
      "startOffset": 277290,
      "styleSheetId": "67740.355",
      "used": true
    },
    {
      "endOffset": 200600,
      "startOffset": 200362,
      "styleSheetId": "67740.355",
      "used": true
    },
    {
      "endOffset": 201867,
      "startOffset": 201705,
      "styleSheetId": "67740.355",
      "used": true
    },
    {
      "endOffset": 203690,
      "startOffset": 203631,
      "styleSheetId": "67740.355",
      "used": true
    },
    {
      "endOffset": 200683,
      "startOffset": 200600,
      "styleSheetId": "67740.355",
      "used": true
    },
    {
      "endOffset": 202015,
      "startOffset": 201913,
      "styleSheetId": "67740.355",
      "used": true
    },
    {
      "endOffset": 259294,
      "startOffset": 259187,
      "styleSheetId": "67740.355",
      "used": true
    },
    {
      "endOffset": 202136,
      "startOffset": 202015,
      "styleSheetId": "67740.355",
      "used": true
    },
    {
      "endOffset": 224814,
      "startOffset": 224770,
      "styleSheetId": "67740.355",
      "used": true
    },
    {
      "endOffset": 257494,
      "startOffset": 257450,
      "styleSheetId": "67740.355",
      "used": true
    },
    {
      "endOffset": 277442,
      "startOffset": 277334,
      "styleSheetId": "67740.355",
      "used": true
    },
    {
      "endOffset": 224882,
      "startOffset": 224814,
      "styleSheetId": "67740.355",
      "used": true
    },
    {
      "endOffset": 257562,
      "startOffset": 257494,
      "styleSheetId": "67740.355",
      "used": true
    },
    {
      "endOffset": 226493,
      "startOffset": 226372,
      "styleSheetId": "67740.355",
      "used": true
    },
    {
      "endOffset": 225693,
      "startOffset": 225630,
      "styleSheetId": "67740.355",
      "used": true
    },
    {
      "endOffset": 258373,
      "startOffset": 258310,
      "styleSheetId": "67740.355",
      "used": true
    },
    {
      "endOffset": 201110,
      "startOffset": 201029,
      "styleSheetId": "67740.355",
      "used": true
    },
    {
      "endOffset": 276622,
      "startOffset": 276562,
      "styleSheetId": "67740.355",
      "used": true
    },
    {
      "endOffset": 276883,
      "startOffset": 276702,
      "styleSheetId": "67740.355",
      "used": true
    },
    {
      "endOffset": 225963,
      "startOffset": 225920,
      "styleSheetId": "67740.355",
      "used": true
    },
    {
      "endOffset": 226372,
      "startOffset": 226257,
      "styleSheetId": "67740.355",
      "used": true
    },
    {
      "endOffset": 252524,
      "startOffset": 252384,
      "styleSheetId": "67740.355",
      "used": true
    },
    {
      "endOffset": 233098,
      "startOffset": 233030,
      "styleSheetId": "67740.355",
      "used": true
    },
    {
      "endOffset": 224937,
      "startOffset": 224882,
      "styleSheetId": "67740.355",
      "used": true
    },
    {
      "endOffset": 257617,
      "startOffset": 257562,
      "styleSheetId": "67740.355",
      "used": true
    },
    {
      "endOffset": 226738,
      "startOffset": 226493,
      "styleSheetId": "67740.355",
      "used": true
    },
    {
      "endOffset": 224567,
      "startOffset": 224452,
      "styleSheetId": "67740.355",
      "used": true
    },
    {
      "endOffset": 233143,
      "startOffset": 233098,
      "styleSheetId": "67740.355",
      "used": true
    },
    {
      "endOffset": 257247,
      "startOffset": 257132,
      "styleSheetId": "67740.355",
      "used": true
    },
    {
      "endOffset": 227109,
      "startOffset": 227074,
      "styleSheetId": "67740.355",
      "used": true
    },
    {
      "endOffset": 231039,
      "startOffset": 230915,
      "styleSheetId": "67740.355",
      "used": true
    },
    {
      "endOffset": 227152,
      "startOffset": 227109,
      "styleSheetId": "67740.355",
      "used": true
    },
    {
      "endOffset": 228049,
      "startOffset": 227767,
      "styleSheetId": "67740.355",
      "used": true
    },
    {
      "endOffset": 227245,
      "startOffset": 227152,
      "styleSheetId": "67740.355",
      "used": true
    },
    {
      "endOffset": 228171,
      "startOffset": 228118,
      "styleSheetId": "67740.355",
      "used": true
    },
    {
      "endOffset": 228290,
      "startOffset": 228171,
      "styleSheetId": "67740.355",
      "used": true
    },
    {
      "endOffset": 227291,
      "startOffset": 227245,
      "styleSheetId": "67740.355",
      "used": true
    },
    {
      "endOffset": 227455,
      "startOffset": 227401,
      "styleSheetId": "67740.355",
      "used": true
    },
    {
      "endOffset": 227340,
      "startOffset": 227291,
      "styleSheetId": "67740.355",
      "used": true
    },
    {
      "endOffset": 227401,
      "startOffset": 227340,
      "styleSheetId": "67740.355",
      "used": true
    },
    {
      "endOffset": 224452,
      "startOffset": 224225,
      "styleSheetId": "67740.355",
      "used": true
    },
    {
      "endOffset": 258670,
      "startOffset": 258443,
      "styleSheetId": "67740.355",
      "used": true
    },
    {
      "endOffset": 287876,
      "startOffset": 287649,
      "styleSheetId": "67740.355",
      "used": true
    },
    {
      "endOffset": 231209,
      "startOffset": 231115,
      "styleSheetId": "67740.355",
      "used": true
    },
    {
      "endOffset": 228118,
      "startOffset": 228049,
      "styleSheetId": "67740.355",
      "used": true
    },
    {
      "endOffset": 228539,
      "startOffset": 228290,
      "styleSheetId": "67740.355",
      "used": true
    },
    {
      "endOffset": 225722,
      "startOffset": 225693,
      "styleSheetId": "67740.355",
      "used": true
    },
    {
      "endOffset": 228584,
      "startOffset": 228539,
      "styleSheetId": "67740.355",
      "used": true
    },
    {
      "endOffset": 231115,
      "startOffset": 231039,
      "styleSheetId": "67740.355",
      "used": true
    },
    {
      "endOffset": 232409,
      "startOffset": 232327,
      "styleSheetId": "67740.355",
      "used": true
    },
    {
      "endOffset": 258402,
      "startOffset": 258373,
      "styleSheetId": "67740.355",
      "used": true
    },
    {
      "endOffset": 232466,
      "startOffset": 232409,
      "styleSheetId": "67740.355",
      "used": true
    },
    {
      "endOffset": 228697,
      "startOffset": 228584,
      "styleSheetId": "67740.355",
      "used": true
    },
    {
      "endOffset": 228805,
      "startOffset": 228697,
      "styleSheetId": "67740.355",
      "used": true
    },
    {
      "endOffset": 239493,
      "startOffset": 239407,
      "styleSheetId": "67740.355",
      "used": true
    },
    {
      "endOffset": 239547,
      "startOffset": 239493,
      "styleSheetId": "67740.355",
      "used": true
    },
    {
      "endOffset": 231998,
      "startOffset": 231924,
      "styleSheetId": "67740.355",
      "used": true
    },
    {
      "endOffset": 239692,
      "startOffset": 239547,
      "styleSheetId": "67740.355",
      "used": true
    },
    {
      "endOffset": 225763,
      "startOffset": 225722,
      "styleSheetId": "67740.355",
      "used": true
    },
    {
      "endOffset": 258443,
      "startOffset": 258402,
      "styleSheetId": "67740.355",
      "used": true
    },
    {
      "endOffset": 239803,
      "startOffset": 239692,
      "styleSheetId": "67740.355",
      "used": true
    },
    {
      "endOffset": 269175,
      "startOffset": 269129,
      "styleSheetId": "67740.355",
      "used": true
    },
    {
      "endOffset": 268896,
      "startOffset": 268790,
      "styleSheetId": "67740.355",
      "used": true
    },
    {
      "endOffset": 252917,
      "startOffset": 252846,
      "styleSheetId": "67740.355",
      "used": true
    },
    {
      "endOffset": 226027,
      "startOffset": 225963,
      "styleSheetId": "67740.355",
      "used": true
    },
    {
      "endOffset": 229404,
      "startOffset": 229328,
      "styleSheetId": "67740.355",
      "used": true
    },
    {
      "endOffset": 229000,
      "startOffset": 228805,
      "styleSheetId": "67740.355",
      "used": true
    },
    {
      "endOffset": 229484,
      "startOffset": 229404,
      "styleSheetId": "67740.355",
      "used": true
    },
    {
      "endOffset": 229940,
      "startOffset": 229860,
      "styleSheetId": "67740.355",
      "used": true
    },
    {
      "endOffset": 229076,
      "startOffset": 229000,
      "styleSheetId": "67740.355",
      "used": true
    },
    {
      "endOffset": 230814,
      "startOffset": 230726,
      "styleSheetId": "67740.355",
      "used": true
    },
    {
      "endOffset": 230043,
      "startOffset": 229940,
      "styleSheetId": "67740.355",
      "used": true
    },
    {
      "endOffset": 230726,
      "startOffset": 230639,
      "styleSheetId": "67740.355",
      "used": true
    },
    {
      "endOffset": 230639,
      "startOffset": 230519,
      "styleSheetId": "67740.355",
      "used": true
    },
    {
      "endOffset": 230433,
      "startOffset": 230342,
      "styleSheetId": "67740.355",
      "used": true
    },
    {
      "endOffset": 229221,
      "startOffset": 229076,
      "styleSheetId": "67740.355",
      "used": true
    },
    {
      "endOffset": 230227,
      "startOffset": 230127,
      "styleSheetId": "67740.355",
      "used": true
    },
    {
      "endOffset": 230915,
      "startOffset": 230814,
      "styleSheetId": "67740.355",
      "used": true
    },
    {
      "endOffset": 229328,
      "startOffset": 229221,
      "styleSheetId": "67740.355",
      "used": true
    },
    {
      "endOffset": 230342,
      "startOffset": 230227,
      "styleSheetId": "67740.355",
      "used": true
    },
    {
      "endOffset": 230519,
      "startOffset": 230433,
      "styleSheetId": "67740.355",
      "used": true
    },
    {
      "endOffset": 224665,
      "startOffset": 224567,
      "styleSheetId": "67740.355",
      "used": true
    },
    {
      "endOffset": 257345,
      "startOffset": 257247,
      "styleSheetId": "67740.355",
      "used": true
    },
    {
      "endOffset": 230127,
      "startOffset": 230043,
      "styleSheetId": "67740.355",
      "used": true
    },
    {
      "endOffset": 267758,
      "startOffset": 267713,
      "styleSheetId": "67740.355",
      "used": true
    },
    {
      "endOffset": 88014,
      "startOffset": 87631,
      "styleSheetId": "67740.355",
      "used": true
    },
    {
      "endOffset": 96170,
      "startOffset": 96134,
      "styleSheetId": "67740.355",
      "used": true
    },
    {
      "endOffset": 113518,
      "startOffset": 113476,
      "styleSheetId": "67740.355",
      "used": true
    },
    {
      "endOffset": 307998,
      "startOffset": 307867,
      "styleSheetId": "67740.355",
      "used": true
    },
    {
      "endOffset": 267338,
      "startOffset": 267287,
      "styleSheetId": "67740.355",
      "used": true
    },
    {
      "endOffset": 269555,
      "startOffset": 269472,
      "styleSheetId": "67740.355",
      "used": true
    },
    {
      "endOffset": 269615,
      "startOffset": 269555,
      "styleSheetId": "67740.355",
      "used": true
    },
    {
      "endOffset": 270071,
      "startOffset": 269973,
      "styleSheetId": "67740.355",
      "used": true
    },
    {
      "endOffset": 250190,
      "startOffset": 250108,
      "styleSheetId": "67740.355",
      "used": true
    },
    {
      "endOffset": 53609,
      "startOffset": 53564,
      "styleSheetId": "67740.355",
      "used": true
    },
    {
      "endOffset": 53643,
      "startOffset": 53609,
      "styleSheetId": "67740.355",
      "used": true
    },
    {
      "endOffset": 53847,
      "startOffset": 53643,
      "styleSheetId": "67740.355",
      "used": true
    },
    {
      "endOffset": 54132,
      "startOffset": 53847,
      "styleSheetId": "67740.355",
      "used": true
    },
    {
      "endOffset": 54296,
      "startOffset": 54132,
      "styleSheetId": "67740.355",
      "used": true
    },
    {
      "endOffset": 270512,
      "startOffset": 270071,
      "styleSheetId": "67740.355",
      "used": true
    },
    {
      "endOffset": 56698,
      "startOffset": 56653,
      "styleSheetId": "67740.355",
      "used": true
    },
    {
      "endOffset": 270637,
      "startOffset": 270512,
      "styleSheetId": "67740.355",
      "used": true
    },
    {
      "endOffset": 114169,
      "startOffset": 114119,
      "styleSheetId": "67740.355",
      "used": true
    },
    {
      "endOffset": 214228,
      "startOffset": 214164,
      "styleSheetId": "67740.355",
      "used": true
    },
    {
      "endOffset": 269742,
      "startOffset": 269615,
      "styleSheetId": "67740.355",
      "used": true
    },
    {
      "endOffset": 92112,
      "startOffset": 92020,
      "styleSheetId": "67740.355",
      "used": true
    },
    {
      "endOffset": 266248,
      "startOffset": 266185,
      "styleSheetId": "67740.355",
      "used": true
    },
    {
      "endOffset": 267436,
      "startOffset": 267387,
      "styleSheetId": "67740.355",
      "used": true
    },
    {
      "endOffset": 92233,
      "startOffset": 92176,
      "styleSheetId": "67740.355",
      "used": true
    },
    {
      "endOffset": 271730,
      "startOffset": 271683,
      "styleSheetId": "67740.355",
      "used": true
    },
    {
      "endOffset": 271852,
      "startOffset": 271730,
      "styleSheetId": "67740.355",
      "used": true
    },
    {
      "endOffset": 272103,
      "startOffset": 272052,
      "styleSheetId": "67740.355",
      "used": true
    },
    {
      "endOffset": 115413,
      "startOffset": 115371,
      "styleSheetId": "67740.355",
      "used": true
    },
    {
      "endOffset": 271902,
      "startOffset": 271852,
      "styleSheetId": "67740.355",
      "used": true
    },
    {
      "endOffset": 271967,
      "startOffset": 271902,
      "styleSheetId": "67740.355",
      "used": true
    },
    {
      "endOffset": 57,
      "startOffset": 0,
      "styleSheetId": "67740.631",
      "used": true
    },
    {
      "endOffset": 237,
      "startOffset": 0,
      "styleSheetId": "67740.632",
      "used": true
    },
    {
      "endOffset": 328,
      "startOffset": 237,
      "styleSheetId": "67740.632",
      "used": true
    },
    {
      "endOffset": 101,
      "startOffset": 0,
      "styleSheetId": "67740.633",
      "used": true
    },
    {
      "endOffset": 480,
      "startOffset": 0,
      "styleSheetId": "67740.637",
      "used": true
    },
    {
      "endOffset": 687,
      "startOffset": 480,
      "styleSheetId": "67740.637",
      "used": true
    },
    {
      "endOffset": 74,
      "startOffset": 0,
      "styleSheetId": "67740.671",
      "used": true
    },
    {
      "endOffset": 85,
      "startOffset": 0,
      "styleSheetId": "67740.640",
      "used": true
    },
    {
      "endOffset": 99,
      "startOffset": 0,
      "styleSheetId": "67740.643",
      "used": true
    },
    {
      "endOffset": 139,
      "startOffset": 99,
      "styleSheetId": "67740.643",
      "used": true
    },
    {
      "endOffset": 226,
      "startOffset": 0,
      "styleSheetId": "67740.652",
      "used": true
    },
    {
      "endOffset": 59,
      "startOffset": 0,
      "styleSheetId": "67740.655",
      "used": true
    },
    {
      "endOffset": 265,
      "startOffset": 0,
      "styleSheetId": "67740.657",
      "used": true
    },
    {
      "endOffset": 724,
      "startOffset": 697,
      "styleSheetId": "67740.657",
      "used": true
    },
    {
      "endOffset": 307,
      "startOffset": 265,
      "styleSheetId": "67740.657",
      "used": true
    },
    {
      "endOffset": 476,
      "startOffset": 0,
      "styleSheetId": "67740.662",
      "used": true
    },
    {
      "endOffset": 27,
      "startOffset": 0,
      "styleSheetId": "67740.666",
      "used": true
    },
    {
      "endOffset": 195,
      "startOffset": 0,
      "styleSheetId": "67740.669",
      "used": true
    },
    {
      "endOffset": 347,
      "startOffset": 281,
      "styleSheetId": "67740.669",
      "used": true
    },
    {
      "endOffset": 281,
      "startOffset": 195,
      "styleSheetId": "67740.669",
      "used": true
    },
    {
      "endOffset": 104,
      "startOffset": 0,
      "styleSheetId": "67740.675",
      "used": true
    },
    {
      "endOffset": 191,
      "startOffset": 164,
      "styleSheetId": "67740.675",
      "used": true
    },
    {
      "endOffset": 346,
      "startOffset": 0,
      "styleSheetId": "67740.679",
      "used": true
    },
    {
      "endOffset": 386,
      "startOffset": 346,
      "styleSheetId": "67740.679",
      "used": true
    },
    {
      "endOffset": 1557,
      "startOffset": 1433,
      "styleSheetId": "67740.679",
      "used": true
    },
    {
      "endOffset": 1610,
      "startOffset": 1557,
      "styleSheetId": "67740.679",
      "used": true
    },
    {
      "endOffset": 1321,
      "startOffset": 977,
      "styleSheetId": "67740.679",
      "used": true
    },
    {
      "endOffset": 1370,
      "startOffset": 1321,
      "styleSheetId": "67740.679",
      "used": true
    },
    {
      "endOffset": 347,
      "startOffset": 0,
      "styleSheetId": "67740.644",
      "used": true
    },
    {
      "endOffset": 388,
      "startOffset": 347,
      "styleSheetId": "67740.644",
      "used": true
    },
    {
      "endOffset": 1875,
      "startOffset": 1748,
      "styleSheetId": "67740.644",
      "used": true
    },
    {
      "endOffset": 1930,
      "startOffset": 1875,
      "styleSheetId": "67740.644",
      "used": true
    },
    {
      "endOffset": 2468,
      "startOffset": 2341,
      "styleSheetId": "67740.644",
      "used": true
    },
    {
      "endOffset": 2523,
      "startOffset": 2468,
      "styleSheetId": "67740.644",
      "used": true
    },
    {
      "endOffset": 1330,
      "startOffset": 985,
      "styleSheetId": "67740.644",
      "used": true
    },
    {
      "endOffset": 2569,
      "startOffset": 2523,
      "styleSheetId": "67740.644",
      "used": true
    },
    {
      "endOffset": 1748,
      "startOffset": 1702,
      "styleSheetId": "67740.644",
      "used": true
    },
    {
      "endOffset": 2122,
      "startOffset": 2053,
      "styleSheetId": "67740.644",
      "used": true
    },
    {
      "endOffset": 416,
      "startOffset": 0,
      "styleSheetId": "67740.691",
      "used": true
    },
    {
      "endOffset": 930,
      "startOffset": 869,
      "styleSheetId": "67740.691",
      "used": true
    },
    {
      "endOffset": 993,
      "startOffset": 930,
      "styleSheetId": "67740.691",
      "used": true
    },
    {
      "endOffset": 1045,
      "startOffset": 993,
      "styleSheetId": "67740.691",
      "used": true
    },
    {
      "endOffset": 275,
      "startOffset": 0,
      "styleSheetId": "67740.699",
      "used": true
    },
    {
      "endOffset": 452,
      "startOffset": 411,
      "styleSheetId": "67740.699",
      "used": true
    },
    {
      "endOffset": 626,
      "startOffset": 0,
      "styleSheetId": "67740.701",
      "used": true
    }
  ]
}
